<?xml version="1.0" encoding="UTF-8" standalone="no"?>
<!-- Created with Inkscape (http://www.inkscape.org/) -->

<svg
   xmlns:dc="http://purl.org/dc/elements/1.1/"
   xmlns:cc="http://creativecommons.org/ns#"
   xmlns:rdf="http://www.w3.org/1999/02/22-rdf-syntax-ns#"
   xmlns:svg="http://www.w3.org/2000/svg"
   xmlns="http://www.w3.org/2000/svg"
   xmlns:xlink="http://www.w3.org/1999/xlink"
   xmlns:sodipodi="http://sodipodi.sourceforge.net/DTD/sodipodi-0.dtd"
   xmlns:inkscape="http://www.inkscape.org/namespaces/inkscape"
   width="600"
   height="400"
   id="svg2"
   version="1.1"
   inkscape:version="0.48.5 r10040"
   sodipodi:docname="Pirate fish flag with swords.svg">
  <defs
     id="defs4">
    <linearGradient
       xlink:href="#linearGradient668"
       id="linearGradient671"
       y2="1.290324"
       x2="1.138461"
       y1="0.225852"
       x1="0.206049" />
    <linearGradient
       id="linearGradient668">
      <stop
         offset="0"
         style="stop-color:#000000;stop-opacity:1"
         id="stop669" />
      <stop
         offset="1"
         style="stop-color:#ffffff;stop-opacity:1"
         id="stop670" />
    </linearGradient>
  </defs>
  <sodipodi:namedview
     id="base"
     pagecolor="#ffffff"
     bordercolor="#666666"
     borderopacity="1.0"
     inkscape:pageopacity="0.0"
     inkscape:pageshadow="2"
     inkscape:zoom="1.375"
     inkscape:cx="300"
     inkscape:cy="200"
     inkscape:document-units="px"
     inkscape:current-layer="layer1"
     showgrid="false"
     fit-margin-top="0"
     fit-margin-left="0"
     fit-margin-right="0"
     fit-margin-bottom="0"
     inkscape:window-width="1366"
     inkscape:window-height="715"
     inkscape:window-x="-8"
     inkscape:window-y="-8"
     inkscape:window-maximized="1"
     inkscape:snap-bbox="true"
     inkscape:bbox-nodes="false"
     inkscape:snap-bbox-midpoints="false"
     inkscape:bbox-paths="true" />
  <metadata
     id="metadata7">
    <rdf:RDF>
      <cc:Work
         rdf:about="">
        <dc:format>image/svg+xml</dc:format>
        <dc:type
           rdf:resource="http://purl.org/dc/dcmitype/StillImage" />
        <dc:title />
      </cc:Work>
    </rdf:RDF>
  </metadata>
  <g
     inkscape:label="Layer 1"
     inkscape:groupmode="layer"
     id="layer1"
     transform="translate(448.2471,-654.7207)">
    <g
       id="g3163">
      <rect
         style="font-size:12px;fill:#000000;fill-opacity:1;fill-rule:evenodd;stroke-width:1pt"
         id="rect3063-7"
         y="654.7207"
         x="-448.2471"
         height="400"
         width="600" />
      <path
         style="fill:#ffffff;fill-opacity:1;stroke:#000000;stroke-width:0.80634922"
         id="path3069-2"
         d="m 36.961074,755.93477 c -12.09524,16.93333 -25.21051,31.28151 -39.5111102,48.38095 0,0 -19.3523798,21.77143 -19.3523798,21.77143 -16.12699,15.32064 -56.44445,45.15556 -74.99048,57.2508 -10.482544,7.25714 -21.771434,12.90158 -33.060324,17.73968 0,0 -14.72393,7.12813 -14.72393,7.12813 2.41905,2.41904 6.91847,3.74146 10.99054,5.64444 2.41905,0 10.99054,-4.70908 13.40959,-6.32178 0,0 25.803174,-14.51428 25.803174,-14.51428 4.8381,-3.2254 9.67619,-7.25715 15.32064,-8.06349 -2.41905,5.64444 -8.0635,8.86984 -13.70794,12.09523 0,0 -15.320644,8.86984 -15.320644,8.86984 0,0 -16.08666,9.16819 -18.288,10.69219 4.41073,1.74172 11.03086,3.74147 15.23194,5.4348 4.03175,0 9.50686,-4.03175 12.732254,-5.64445 8.86985,-4.83809 20.15873,-12.09523 29.02858,-18.54603 0,0 14.51428,-9.67619 14.51428,-9.67619 11.28889,-8.86984 22.57778,-18.54603 33.06032,-29.02857 8.06349,-7.25714 16.1269798,-14.51429 22.57777978,-23.38413 C 9.5452038,825.2808 15.189644,813.18557 21.640444,801.09033 c 7.25714,-11.28889 9.67619,-18.54603 13.70793,-30.64127 0.80635,-4.03175 3.2254,-10.48254 1.6127,-14.51429 z"
         inkscape:connector-curvature="0" />
      <path
         id="path3150"
         d="m -146.77835,729.0332 c -0.33933,0.31304 -0.62311,0.69533 -1.0625,1.03125 -0.55023,0.42055 -0.61657,1.1093 -3.09375,3.15625 -0.94506,0.78117 -2.38126,2.15271 -3.125,3.15625 -0.95607,1.29003 -1.44763,1.46572 -2.09375,2.28125 -0.41881,0.52872 -0.36555,0.77316 -0.84375,1.25 -1.27671,1.2729 -1.54325,2.60685 -2.59375,3.875 -0.58468,0.70581 -2.00145,1.30569 -2.84375,3.65625 l -1.96875,4.25 c -0.32356,0.85798 -0.47318,0.62827 -0.8125,1.46875 -0.3299,0.81686 -0.10991,0.78934 -0.6875,1.40625 -0.67152,0.71702 -2.86492,6.66736 -3.5,8.09375 -0.86471,1.94287 -0.89702,4.4054 -1.65625,5.9375 -0.45492,0.91804 -0.64821,2.57682 -0.8125,3.6875 -1.31596,-0.0387 -2.34668,0.017 -3.21875,0.6875 -0.29111,0.22397 -1.67221,1.63767 -1.90625,2.0625 l 0,14.4375 c -0.0108,2.63042 0.24316,4.18312 2.1875,5.25 0.13445,0.0736 2.69118,1.05506 2.75,1.0625 1.37367,0.1714 1.96324,-0.65756 2.5,-1.375 1.43814,0.25785 1.90894,1.32082 3.03125,-0.5625 0.17869,-1.19705 -0.14612,-0.75498 -0.15625,-1.53125 l 0.46875,-3.09375 c 0.26457,-0.55681 0.3768,-0.19277 0.75,-1.125 l 2.21875,-5.25 c 1.20558,-1.32682 0.82194,-1.41091 1.5625,-2 0.9704,-0.77176 1.10554,-1.71372 3.5625,-3.65625 0.48587,-0.3842 0.81187,-0.30761 1.34375,-0.59375 0.56977,-0.30637 0.46827,-0.46661 1.125,-0.78125 -0.0435,-1.06443 0.0717,-2.34309 0.0625,-3.25 l 0.0312,-10.46875 c -0.0209,-4.87576 -0.27723,-2.51566 0.71875,-6.75 0.48516,-2.06223 0.94058,-4.00491 1.53125,-6.09375 0.39587,-1.39948 0.7597,-1.30593 1.03125,-2.53125 0.10208,-0.46069 0.69675,-2.15592 0.9375,-2.84375 0.19483,-0.5568 0.44162,-0.50138 0.75,-1.125 0.90911,-1.83873 1.73905,-5.86034 2.53125,-7 0.5218,-0.75091 1.25118,-1.33596 1.5,-2.375 0.25747,-1.07434 -0.21964,-0.55959 0.5,-1.3125 0.57748,-0.60415 0.34134,-0.38431 0.71875,-1.1875 0.68474,-1.45625 0.19136,-1.89156 -1.4375,-1.84375 z"
         style="fill:#ffffff;fill-opacity:1;stroke:#000000;stroke-width:0.80634921999999998" />
      <path
         id="path3148"
         d="m -119.34085,731.6582 c -0.71306,0.1054 -1.73876,1.18497 -2.09375,1.46875 -1.60217,1.28096 -1.69204,0.97681 -2.34375,2 -0.37908,0.59536 -0.40969,0.71861 -0.9375,1.15625 -2.69648,2.23678 -2.88577,3.28088 -5.03125,5.59375 l -3.46875,4.15625 c -0.39791,0.42483 -0.2931,0.18537 -0.65625,0.5 l -5.96875,11.125 c -0.42164,1.23926 -0.69624,2.15607 -1.1875,3.1875 -0.48072,1.00904 -0.90696,2.04879 -1.15625,3.0625 l -4.03125,9.03125 c -2.44477,-0.87231 -5.24592,0.13242 -5.875,2.5 -0.42707,1.60706 -0.21447,6.72025 -0.21875,8.71875 -0.004,2.02518 0.66957,5.18526 2.1875,6.5625 1.17647,1.0673 1.79795,0.0895 3.34375,0.1875 1.03189,0.065 2.1728,1.4162 3.03125,-0.3125 0.0986,-0.63962 0.0101,-1.29186 0.125,-1.8125 0.0795,-0.35793 0.39592,-0.94276 0.5625,-1.46875 l 2.15625,-3.9375 c 1.11132,-1.39546 0.42455,-1.19522 1.71875,-2.46875 1.88853,-1.85845 -0.0754,-1.88569 4.3125,-4.21875 0.35976,-0.19142 0.54226,-0.45996 0.75,-0.59375 0.54627,-0.35207 1.28466,-0.31112 1.9375,-0.6875 0.1452,-1.96881 -0.82014,-0.59961 -0.3125,-4.5625 0.0882,-0.68893 -0.076,-0.89708 0.0312,-1.4375 0.14655,-0.73771 0.29348,-0.43318 0.34375,-1.40625 0.0366,-0.71032 0.10543,-1.00413 0.25,-1.65625 0.26324,-1.1881 0.44951,-2.06862 0.625,-3.125 0.14362,-0.86557 0.0853,-0.61771 0.40625,-1.3125 0.3398,-0.7355 1.2987,-3.64387 1.21875,-4.25 -0.14521,-1.10346 0.45173,-1.75024 0.71875,-2.75 l 1.75,-5.6875 c 0.37653,-1.092 0.92639,-1.8174 1.09375,-2.6875 0.35105,-1.82226 1.04364,-2.55013 1.65625,-3.8125 0.34921,-0.71927 0.76359,-2.10831 1.6875,-3.875 1.72552,-3.29958 4.54495,-4.17405 4.0625,-6.59375 -0.0999,-0.50115 -0.36338,-0.64165 -0.6875,-0.59375 z"
         style="fill:#ffffff;fill-opacity:1;stroke:#000000;stroke-width:0.80634921999999998" />
      <path
         id="path3146"
         transform="translate(-448.2471,654.7207)"
         d="M 271.71875 80.125 C 270.781 80.129 270.0158 80.43455 269.15625 80.5 C 267.42956 80.63134 267.5522 81.31511 266.6875 81.53125 C 266.15895 81.66338 265.5578 81.53925 264.9375 81.6875 L 259.375 83.53125 C 258.64141 83.74872 258.63863 83.59605 257.84375 83.9375 C 256.19043 84.64695 253.92658 85.21855 252.0625 85.5 C 250.53666 85.73046 250.58532 86.23774 249.53125 86.65625 C 247.51866 87.45522 243.27166 89.40492 241.40625 89.6875 C 240.26302 89.86072 235.91044 93.17635 234.25 93.71875 C 232.9535 94.14247 232.80533 94.46547 231.90625 95.15625 L 226.96875 98.84375 L 224.25 100.5 C 223.74394 100.87138 223.60261 101.19328 223.03125 101.53125 C 221.52702 102.42041 221.12873 103.11705 219.46875 104.84375 C 218.51292 105.83791 218.72366 105.33296 218.1875 105.84375 C 217.62714 106.37783 217.87213 106.73765 216.90625 107.75 C 216.02453 108.67392 214.07768 111.69659 213.65625 112.5 L 211.9375 115.375 C 211.52999 116.05586 211.58078 116.25967 211.25 116.90625 C 209.61309 120.10536 210.00659 120.60863 208.40625 123.03125 C 207.34227 124.64188 206.58669 127.13335 206.28125 127.75 C 205.31284 129.70493 205.03843 131.09917 204.40625 132.5 C 204.17715 133.0079 203.86955 133.46471 203.625 134 C 203.1445 135.05232 203.35868 136.81086 203.15625 138.125 C 203.06715 138.70359 202.86986 139.30814 202.75 140 C 202.32405 142.45921 202.41493 143.5757 202.46875 146.15625 C 203.24682 146.486 203.82557 146.71811 204.9375 146.71875 C 205.16552 147.18869 205.67494 147.72206 206.1875 148.09375 C 207.0594 148.72593 206.89834 148.76655 207.65625 149.5 C 208.23879 150.0637 210.71709 150.65756 211.6875 151.15625 C 214.59709 152.65132 217.37714 152.88256 220.59375 153.5 C 222.15666 153.79998 224.55184 154.11256 225.75 154.59375 L 226.15625 154.75 C 227.27342 155.0579 227.66036 155.20265 229.4375 154.34375 C 230.52576 153.81796 231.36323 152.17166 230.5625 150.75 C 230.23868 150.17475 230.23101 150.48973 229.90625 150.03125 C 229.54832 149.52582 229.77736 149.40726 229.59375 148.875 C 229.36955 148.22351 228.62445 147.84668 228.15625 147.5 C 227.99402 146.20129 227.69085 146.04986 229.0625 145.03125 C 229.73258 145.18879 230.12607 145.69922 230.84375 145.46875 C 232.47702 144.94471 231.97077 144.58588 234.78125 144.09375 C 237.38563 143.6375 237.81707 141.87735 240.625 143.6875 C 242.06171 144.61373 249.4795 147.55471 249.71875 147.71875 C 251.27264 148.78457 250.61557 147.92226 251.53125 148.5625 C 253.71351 150.08898 258.6813 149.12167 260.5 147.375 C 262.4008 145.5491 263.29666 144.81144 264.75 142.3125 C 265.11585 141.68349 265.5103 141.35639 265.71875 140.625 C 266.48924 137.92434 267.535 137.76347 267.5 134.375 C 267.4827 132.70284 267.138 131.17491 267.09375 129.625 C 267.06655 128.67691 266.76988 126.56608 266.21875 125.5625 L 266.875 120.375 C 267.17172 118.17747 267.25787 117.10191 267.75 114.75 C 267.94436 113.82205 267.58256 113.42229 267.6875 112.5625 C 268.09254 109.24629 267.51445 110.20412 267.25 109.5625 C 267.244 106.40536 266.42879 104.576 267.46875 101.53125 C 267.94052 100.15084 267.68609 99.02806 267.90625 97.625 C 268.16255 95.99235 268.6115 95.35982 268.9375 94.03125 C 269.07599 93.46772 269.137 92.87194 269.28125 92.28125 C 269.44735 91.60197 269.67853 91.35949 269.84375 90.59375 C 270.16463 89.10654 270.89231 89.07165 271.90625 86 C 272.0126 85.67731 272.44984 84.86562 272.6875 84.5 C 272.83111 84.27919 274.29557 82.7992 274.625 81.90625 C 274.21816 81.30954 273.62763 80.41469 272.71875 80.21875 C 272.36121 80.14145 272.03135 80.1232 271.71875 80.125 z M 214.4375 124.84375 C 215.26108 124.81435 216.12694 125.27271 216.96875 126.53125 C 217.6422 127.53844 217.22721 127.92203 217.5625 128.96875 C 218.11923 130.70805 219.21375 131.35462 219.21875 133.40625 C 219.22275 134.91141 218.1602 135.88279 216.84375 135.1875 L 216.34375 134.15625 C 216.10805 133.75685 216.06116 133.68976 215.8125 133.1875 C 215.38386 132.32147 214.97717 132.27315 214.25 131.875 C 212.99593 131.18812 211.09555 131.0343 209.6875 131.5 C 209.6449 130.40396 209.73494 129.56272 210.09375 128.6875 L 211.3125 126.875 C 212.34864 125.75957 213.37859 124.88155 214.4375 124.84375 z "
         style="fill:#ffffff;fill-opacity:1;stroke:#000000;stroke-width:0.80634921999999998" />
      <path
         id="path3144"
         d="m -98.40335,742.9707 c -0.83702,0.08 -1.22353,0.62686 -1.75,1.15625 l -3,2.125 c -1.35934,0.66899 -0.43917,0.27577 -1.65625,1.75 -0.5276,0.63915 -0.49741,0.30053 -1.03125,0.75 -0.39252,0.33083 -0.31598,0.62421 -1.65625,1.71875 -0.81554,0.66604 -0.21761,0.23181 -0.71875,1 -0.14964,0.2296 -0.65406,0.73051 -0.8125,0.875 -0.51303,0.46814 -0.35725,0.40386 -0.75,0.96875 -0.53213,0.7659 -0.78647,0.47575 -1.6875,1.75 -0.39301,0.55569 -0.44133,0.8033 -0.71875,1.1875 -0.82811,1.14791 -1.51798,1.58031 -2.125,3 -0.56463,1.32031 -0.95864,1.50492 -1.59375,3.5 -0.97148,3.05187 -0.55449,1.16454 -1.125,2.53125 -0.21322,0.51058 -0.25868,0.736 -0.5,1.1875 -1.3144,2.45851 -2.05928,6.34017 -2.125,6.46875 -0.60464,1.18067 -0.1886,1.80362 -0.53125,3.15625 -1.48815,-0.21837 -2.68603,-1.11945 -4,-0.90625 -2.86899,0.46545 -3.90666,3.37181 -4,5.75 -0.0704,1.7962 -0.4431,7.41867 0.4375,8.84375 0.42214,0.68292 2.42138,1.94275 2.84375,2.125 2.61895,1.13016 3.42118,-1.98293 5.875,0 0.62718,0.50701 0.37294,0.90272 1.5,0.96875 1.70406,-1.83604 1.25342,-2.49189 1.65625,-3.875 0.2653,-0.91131 1.34343,-2.66993 1.90625,-3.5625 3.20562,-5.08355 1.70341,-2.35909 3.8125,-4.375 0.36601,-0.34994 1.38316,-0.67505 2.03125,-0.84375 0.45894,-5.18297 0.16062,-8.22186 1,-13.96875 0.32626,-2.23569 -0.0262,-0.51838 0.625,-2.46875 0.29016,-0.86967 0.3507,-1.49864 0.59375,-2.40625 0.78773,-2.94212 2.66167,-6.61936 2.9375,-7.53125 0.1555,-0.51414 0.13593,-0.72714 0.34375,-1.15625 0.17908,-0.37005 0.39761,-0.52171 0.5625,-0.9375 0.19499,-0.49102 0.084,-0.68117 0.375,-1.15625 l 2.78125,-4.84375 c 0.28365,-0.35658 0.45154,-0.36625 0.75,-0.75 0.53591,-0.68924 0.72248,-1.22499 0.15625,-2.03125 -0.139,-0.007 -0.28667,-0.0114 -0.40625,0 z"
         style="fill:#ffffff;fill-opacity:1;stroke:#000000;stroke-width:0.80634921999999998" />
      <path
         id="path3142"
         d="m -333.15335,751.9082 c -2.41904,8.86984 0.80585,19.34276 4.03125,27.40625 7.25714,19.35238 19.34226,36.27926 31.4375,52.40625 7.25714,10.48254 19.34891,23.38015 28.21875,32.25 l 9.6875,8.09375 20.96875,18.53125 c 16.93333,12.90159 48.36637,32.25516 67.71875,41.125 l 25.8125,11.28125 10.5,4.03125 c 12.09524,4.8381 24.19217,8.08096 37.09375,10.5 7.25715,1.6127 15.30536,4.03125 22.5625,4.03125 -2.41905,-8.86984 -7.24286,-8.08095 -14.5,-10.5 l -26.625,-10.46875 c -37.09206,-15.32063 -78.22143,-30.65893 -107.25,-59.6875 5.64444,0 9.68701,4.8371 13.71875,8.0625 5.64445,4.03175 12.89296,8.8745 19.34375,12.90625 17.73969,10.48254 58.06002,29.02411 78.21875,36.28125 8.06349,3.2254 21.78026,8.875 29.84375,8.875 6.45079,0.80635 15.31815,-3.2121 20.15625,-6.4375 -3.2254,-3.2254 -6.44316,-2.4124 -11.28125,-3.21875 l -25,-7.28125 c -21.77142,-5.64444 -42.74752,-13.70496 -62.90625,-24.1875 l -11.28125,-4.84375 -15.3125,-9.65625 -18.5625,-12.09375 -19.34375,-15.34375 -33.0625,-25.78125 -30.65625,-31.46875 -15.3125,-17.71875 -16.125,-17.75 -12.09375,-19.34375 z"
         style="fill:#ffffff;fill-opacity:1;stroke:#000000;stroke-width:0.80634921999999998" />
      <path
         id="path3140"
         d="m -80.8096,758.12695 c -0.93382,0.46235 -1.33308,0.18085 -2,0.5 -0.1912,0.0914 -1.04259,0.98009 -1.34375,1.28125 -0.79668,0.79691 -1.1311,0.49189 -1.65625,1 -0.52244,0.50535 0.0267,0.35365 -1.3125,1.34375 -0.44367,0.32816 -0.44989,0.22454 -0.71875,0.65625 -1.31336,2.11045 -1.24813,0.96641 -1.96875,2.03125 -0.38642,0.57113 -0.55932,1.0139 -1.03125,1.625 l -5.09375,8 c -0.76724,1.50432 -1.73986,2.66904 -1.96875,3.375 -0.39141,1.20766 -1.2821,2.77473 -1.46875,3.8125 -1.72981,-0.42863 -2.87272,-0.48337 -4.625,1.28125 -1.11328,1.12122 -1.16756,3.50524 -0.9375,5.46875 0.1286,1.09942 0.35968,1.69282 0.5625,2.65625 0.59361,2.81712 -0.2178,3.10927 1.6875,4.75 0.69125,0.5952 1.46807,0.70119 2.625,0.5625 0.95399,-1.3546 1.13724,-1.23339 2.1875,-0.0625 0.2509,0.27963 0.54468,0.47879 0.875,0.8125 2.90088,-0.55593 0.70773,-0.11613 2.75,-4.0625 l 2.40625,-4.625 c 0.54666,-0.65846 1.08623,-1.17172 1.65625,-1.78125 1.81214,-1.93809 1.46728,-2.08333 1.65625,-5.0625 0.07977,-1.25657 0.47061,-2.11594 0.625,-3.09375 0.31819,-2.01846 -0.05746,-4.31585 1,-5.84375 l 1.96875,-5.0625 c 0.35548,-1.08693 0.75591,-1.47578 1.03125,-2.375 0.33751,-1.1019 1.79912,-3.68612 2.375,-4.46875 0.35635,-0.48402 0.42046,-0.33667 0.8125,-0.9375 0.3288,-0.50384 0.50249,-0.5801 0.65625,-1.21875 -0.33308,-0.22555 -0.51525,-0.3185 -0.75,-0.5625 z"
         style="fill:#ffffff;fill-opacity:1;stroke:#000000;stroke-width:0.80634921999999998" />
      <path
         id="path3138"
         d="m -49.9971,770.56445 c -0.33654,0.0153 -0.72406,0.0839 -1.15625,0.15625 -1.4367,0.24099 -2.05073,0.87234 -3.25,1.15625 -0.61451,0.14544 -1.18952,0.0787 -1.8125,0.21875 l -3.40625,0.9375 c -2.36388,1.26838 -4.31215,1.67017 -5.90625,2.90625 -0.74507,0.57786 0.35136,-0.0565 -1.21875,1 -1.86312,1.25429 -0.86964,0.82519 -2.40625,2 -0.76907,0.58798 -0.41675,0.62303 -0.78125,1.28125 -0.23783,0.42957 -0.77665,0.57852 -1.21875,1.09375 -0.43899,0.51152 -0.42183,0.83248 -0.75,1.34375 -0.27019,0.42056 -0.78234,0.72978 -1.125,1.125 -0.76415,0.88147 -0.71411,2.00378 -1.78125,2.59375 -1.17798,0.65104 -2.50514,0.0684 -3.75,0.59375 -1.12501,0.47502 -1.21213,1.69345 -1.40625,3 -0.18223,1.22676 -0.52528,2.31919 -0.6875,3.6875 -0.16134,1.36108 -0.23343,2.74328 -0.15625,4.15625 0.1232,2.24961 2.04641,4.05922 3.75,4.875 l 1.40625,-0.46875 c 0.40512,0.79843 1.47913,1.26895 2.34375,0.65625 0.55253,-0.39117 1.18366,-2.80302 1.5625,-3.5625 0.171,-0.34265 1.34182,-1.37343 1.9375,-3.375 0.49078,-1.64976 0.38441,-0.0229 1.40625,-2 l 2.46875,-2.8125 c 0.51731,-0.41066 0.53735,-0.32356 1.1875,-0.5625 0.98567,-0.36244 1.48594,-0.85085 2.3125,-1.3125 0.10279,-1.05028 0.27687,-2.36055 0.875,-3.09375 0.37654,-0.46139 0.45364,-0.67438 0.78125,-1.125 0.27251,-0.3748 0.61326,-0.85906 0.875,-1.25 2.95646,-4.42017 2.30906,-2.91609 4.03125,-5.0625 0.41184,-0.51325 0.57266,-1.27862 1.09375,-1.71875 l 2.125,-1.90625 c 0.37431,-0.30837 0.67999,-0.42885 1.125,-0.78125 1.8187,-1.44012 1.75159,-1.06604 2.53125,-1.65625 0.26753,-0.20245 0.247,-0.25358 0.46875,-0.46875 0.07458,-0.0724 0.29547,-0.2644 0.3125,-0.28125 0.28327,-0.27876 0.09742,-0.088 0.28125,-0.3125 -0.43506,-0.81852 -1.05289,-1.07716 -2.0625,-1.03125 z"
         style="fill:#ffffff;fill-opacity:1;stroke:#000000;stroke-width:0.80634921999999998" />
      <path
         id="path3136"
         d="m -155.1846,779.93945 c -0.43156,0.16857 -0.66029,0.14547 -1,0.28125 l -0.59375,0.375 c -0.0362,0.0213 -0.11911,0.0415 -0.15625,0.0625 -0.0384,0.0215 -0.0864,0.0407 -0.125,0.0625 -0.84444,0.47686 -1.03982,1.58835 -1.6875,2.25 -0.30813,0.31486 -0.42051,0.32167 -0.71875,0.6875 -1.23744,1.51708 -2.28656,4.6057 -2.96875,6.5 -0.16563,0.45966 -0.24339,0.2211 -0.4375,0.90625 -0.20014,0.70651 -0.3166,1.6533 -0.46875,2.375 -0.21006,0.99732 -0.88354,3.61693 -0.875,4.375 0.004,0.37124 0.10301,1.97504 0.15625,2.46875 l 1.28125,4.25 c 0.42531,1.18178 0.42011,0.48249 0.75,2.09375 l 2.53125,8.34375 c 0.26688,0.67368 0.27544,1.49404 0.53125,2.09375 l 0.75,2.0625 c 0.55081,1.16809 1.46193,1.91043 1.90625,3.375 0.28793,0.94948 0.51713,0.87341 0.90625,1.78125 1.93333,4.50871 0.4911,1.42686 2.96875,5.28125 0.22325,0.34743 0.14589,0.50228 0.375,0.90625 0.12526,0.22061 0.43614,0.58709 0.5625,0.75 0.43473,0.56092 0.64093,1.12261 1.03125,1.8125 0.40171,0.71001 0.43518,1.02112 0.90625,1.75 0.46704,0.72309 0.76052,0.84318 1.21875,1.65625 0.64698,1.14725 0.65567,0.62322 1.46875,1.21875 0.57233,0.41936 0.73901,0.91068 1.40625,1.375 0.90801,-1.08426 0.0552,-0.87761 -0.5,-4 -0.21944,-1.23426 -0.24874,-2.5756 -0.90625,-3.5 -1.96572,-2.76206 -1.1431,-3.99676 -2.09375,-6.625 -1.39095,-3.84585 -1.32579,-4.66533 -2.5625,-8.25 -0.74737,-2.16611 -0.67599,-4.13268 -1.15625,-5.5625 -0.57405,-1.70939 -0.58605,-5.53586 -1.0625,-7.625 -0.14068,-0.61754 -0.38003,-1.06026 -0.4375,-1.65625 -0.32738,-3.4067 -2.51127,-10.6298 -1.25,-13.21875 0.6012,-1.2341 0.28342,-6.82296 0.25,-8.65625 z"
         style="fill:#ffffff;fill-opacity:1;stroke:#000000;stroke-width:0.80634921999999998" />
      <path
         id="path3134"
         d="m -133.71585,780.3457 c -0.81569,0.0454 -1.3129,0.49381 -1.8125,1.1875 l -2.09375,2.65625 c -0.5857,0.94729 -1.08843,2.10563 -1.78125,2.96875 -0.84269,1.04986 -0.69485,2.14216 -1.15625,3.59375 -1.4488,4.5606 -0.5526,2.50581 0.5625,7.125 0.33016,1.36672 0.82087,2.28081 1.21875,3.5625 0.60345,1.94386 1.52171,5.45378 2.25,7.03125 0.63732,1.38103 1.20378,4.38329 2.875,6.625 1.38491,1.85795 0.78643,2.76198 4.0625,6.59375 0.21274,0.24914 0.25778,0.40808 0.4375,0.6875 l 2.03125,2.71875 c 1.16089,1.1699 2.18725,2.64219 3.09375,4.03125 l 1.0625,-0.53125 c -0.16947,-1.34254 -0.4108,-1.49446 -0.8125,-2.65625 l -1,-2.625 c -0.33212,-0.79913 -0.4675,-2.02886 -0.75,-2.84375 -0.14098,-0.40687 -0.33471,-0.77033 -0.46875,-1.21875 -0.94117,-3.1513 -1.32185,-1.91433 -2.28125,-6.90625 -0.50556,-2.63092 -1.88118,-5.62589 -1.96875,-8.625 -0.0332,-1.13833 -0.38043,-2.0161 -0.65625,-2.96875 l -1.3125,-13.1875 c -0.12167,-2.34471 0.19187,-4.71716 -0.15625,-6.96875 -0.53985,-0.17947 -0.97299,-0.27064 -1.34375,-0.25 z"
         style="fill:#ffffff;fill-opacity:1;stroke:#000000;stroke-width:0.80634921999999998" />
      <path
         id="path3132"
         d="m -109.0596,784.93945 c -1.58367,0.0732 -0.76415,0.65705 -2.3125,1.9375 -0.82835,0.68498 -2.28498,5.28628 -2.59375,6.3125 -0.17195,0.57097 -0.1013,0.94348 -0.28125,1.4375 -0.19927,0.54596 -0.36873,0.52027 -0.40625,1.28125 -0.21162,4.29761 1.33753,10.82123 3.40625,14.4375 0.76612,1.33939 0.44127,-0.014 1.15625,2.46875 0.3386,1.17614 0.88896,1.33031 1.40625,2.21875 0.47511,0.81626 0.79595,2.13652 1.84375,3.28125 1.74444,1.90554 0.15174,0.61438 2.28125,3.21875 0.75355,0.92169 0.52988,1.94105 1.78125,1.65625 -0.10572,-0.77745 -1.04104,-3.46503 -1.21875,-4.6875 l -0.8125,-3.15625 c -0.17956,-0.51618 -0.37511,-1.01729 -0.5625,-1.53125 -0.45136,-1.23766 -1.34232,-8.40264 -1.6875,-10.6875 -1.34019,-8.87214 -0.45039,-7.97511 -1.125,-14.8125 -0.12745,-1.29126 0.3567,-0.49187 -0.0312,-3.375 -0.33835,-0.0108 -0.61751,-0.0108 -0.84375,0 z"
         style="fill:#ffffff;fill-opacity:1;stroke:#000000;stroke-width:0.80634921999999998" />
      <path
         id="path3130"
         d="m -85.15335,788.8457 c -1.22652,-0.021 -1.98152,0.90235 -3.0625,1.40625 -0.55768,0.26014 -0.445,-0.0123 -0.90625,0.4375 -0.74975,0.73295 -1.47304,2.40998 -2,3.5 -0.30877,0.63874 -0.67292,1.11579 -0.8125,1.84375 -0.34653,1.80866 0.10323,1.30517 0.34375,2.375 0.39633,1.76241 0.42757,2.62275 1.15625,4.25 0.61018,1.36309 1.04359,3.12518 2.28125,5.875 0.32856,0.73004 0.51202,1.32862 0.84375,2.03125 l 1.90625,3.59375 c 0.52339,0.76572 1.87033,2.74391 2.65625,2.84375 l -0.53125,-6.8125 c -0.06818,-1.15019 -0.47437,-2.13821 -0.59375,-3.25 -0.12074,-1.12438 -0.13992,-2.44968 -0.1875,-3.59375 -0.04728,-1.13856 -0.26142,-2.28241 -0.21875,-3.4375 0.04848,-1.31756 0.41187,-1.86466 0.40625,-3.375 -0.0105,-2.70183 0.44923,-4.53353 0.75,-6.96875 -0.81634,-0.51957 -1.47376,-0.70919 -2.03125,-0.71875 z"
         style="fill:#ffffff;fill-opacity:1;stroke:#000000;stroke-width:0.80634921999999998" />
      <path
         id="path3128"
         d="m -62.4346,795.18945 c -1.0306,0.0672 -1.88301,0.48559 -2.9375,1 -1.87951,0.91704 -3.95906,4.23753 -4.34375,5.53125 -0.11692,0.39362 -0.07989,0.60139 -0.1875,0.96875 -0.11686,0.40036 -0.21833,0.45574 -0.34375,0.96875 -0.31081,1.27116 -0.24587,0.87214 -0.71875,1.78125 0.16451,0.87879 0.82258,1.66178 1.4375,2.34375 0.84046,0.93222 1.18988,1.04741 2.28125,1.6875 l 2.53125,1.46875 c 0.85614,0.31912 1.8727,0.42733 2.875,1.15625 1.12184,0.81594 3.02397,1.24791 4.375,1.5 2.04307,0.38151 2.80114,0.0307 3.75,0.25 0.20688,0.048 3.49504,1.48083 4.25,-0.8125 -0.35192,-0.51034 -1.47645,-1.35606 -2,-1.84375 l -1.9375,-1.84375 c -0.85821,-0.75986 -0.97053,-1.2937 -1.6875,-2.125 -0.78727,-0.91243 -0.92599,-1.48123 -1.53125,-2.28125 -1.31597,-1.73931 -1.56798,-2.6016 -2.21875,-3.46875 -0.23387,-0.31154 -0.62851,-0.59409 -0.8125,-1.03125 -0.37954,-0.90106 -0.3219,-2.14374 -0.78125,-3.0625 -0.69052,-1.38113 -0.25341,0.41979 -1.5625,-2.1875 -0.15643,-0.005 -0.29027,-0.01 -0.4375,0 z"
         style="fill:#ffffff;fill-opacity:1;stroke:#000000;stroke-width:0.80634921999999998" />
      <path
         id="path3160"
         d="m -216.34085,749.87695 -4.9375,3.71875 c 1.38287,1.15691 2.57303,3.01566 5.5625,5.25 0.63241,0.47287 1.21766,0.97579 1.84375,1.53125 -2.41811,2.40282 -2.13704,5.23238 -2.21875,9.3125 -0.0325,1.62885 0.1598,3.54624 0.28125,5.15625 0.10928,1.44993 0.17347,1.1608 0.65625,2.21875 1.07632,2.35746 -0.73681,0.39124 1.96875,3.9375 0.49687,0.65126 0.4078,1.2646 1,1.875 2.14415,2.20987 1.71068,3.21919 3.25,3.9375 1.08978,0.50875 -0.14921,0.17182 1.75,1.3125 0.52584,0.31572 0.41267,0.42462 0.71875,0.625 0.37883,0.24797 1.54719,0.40875 2.15625,0.65625 2.29869,0.93429 4.0042,-0.0451 4.875,-0.34375 0.84246,-0.28889 0.48469,0.0378 1.125,-0.5625 1.21385,-1.13847 0.72634,-0.18029 1.84375,-1.40625 0.44382,-0.48705 0.3924,-0.16617 0.84375,-0.6875 1.28968,-1.48879 2.41179,-2.09896 3.21875,-3.21875 2.69418,-3.7373 2.496,-5.3473 3.125,-6.59375 0.37702,0.10261 0.61924,0.12955 0.9375,0.28125 l 4.46875,2.21875 c 0.79914,0.34534 1.27394,0.40001 1.6875,0.9375 0.0542,0.0706 0.10616,0.15877 0.15625,0.25 l 0.65625,-5.1875 c -1.29531,-0.36356 -1.52259,-0.91838 -2.5625,-1.3125 l -2.625,-1.125 c -0.95533,-0.42886 -1.56999,-1.00242 -2.375,-1.46875 -2.08597,-1.20828 -1.65801,-1.21541 -3.28125,-2.25 -1.22762,-0.78253 -0.32992,0.25625 -2.28125,-1.53125 l -4.75,-2.8125 c -1.44817,-0.55634 -2.05998,-1.30172 -3.28125,-2.1875 -0.35866,-0.25991 -0.79427,-0.47577 -1.15625,-0.75 -0.46727,-0.35365 -0.49487,-0.61779 -1,-0.96875 -0.56083,-0.38957 -0.61483,-0.27678 -1.125,-0.78125 -1.82963,-1.80843 -1.14009,-0.91553 -2.15625,-1.625 -0.82456,-0.57516 -0.37512,-0.88849 -3.21875,-2.28125 -1.12477,-0.5507 -1.26567,-0.93944 -2.25,-1.53125 -1.65221,-0.9935 -3.09403,-2.01004 -2.90625,-4.59375 z"
         style="fill:#000000;fill-opacity:1;stroke:#000000;stroke-width:0.80634921999999998" />
      <path
         id="path3071-3"
         d="m -205.02835,806.4707 c -0.83193,1.57184 -1.67472,3.36971 -2.96875,4.8125 -0.30765,0.34273 -0.35147,0.679 -0.625,1.0625 -0.63036,0.88353 -5.65964,2.85801 -6.6875,3.03125 -1.34717,0.22713 -1.43141,0.24805 -2.5625,0.65625 -0.62371,0.22492 -2.00949,0.3608 -2.78125,0.4375 -0.0806,-1.31731 -0.65561,-3.61707 -1.3125,-4.84375 -0.18067,-0.33757 -0.29757,-0.39395 -0.625,-0.4375 l -2.28125,-0.0625 c -1.94505,0.007 -3.11006,-0.91156 -3.6875,0.3125 -0.63354,1.34287 -0.12574,3.04479 -0.125,3.6875 -0.81809,0.60842 -0.57637,0.56638 -1.53125,0.5625 -1.51755,-0.005 -2.28125,-3.85731 -2.28125,-5.5625 -0.7853,-0.32624 -1.27313,-0.42679 -2.25,-0.46875 -1.16879,-0.0504 -1.73481,-0.44649 -2.53125,-0.59375 -1.48517,-0.27465 -1.43751,0.31457 -5,-0.9375 0.0698,0.58618 0.0859,0.41441 0.28125,0.9375 0.17323,0.46369 0.13982,0.75207 0.21875,1.28125 0.15106,1.01038 0.23273,1.38548 0.625,2.21875 1.69482,3.59963 0.32469,4.72668 4.75,6.90625 0.86579,0.42642 1.27661,0.3322 1.9375,0.90625 1.06652,0.92637 4.06395,2.71517 5.28125,3.4375 l 1.6875,1.15625 c 1.35398,0.83436 4.50012,2.18707 5.96875,2.96875 1.16657,0.62093 0.77572,0.3972 2.09375,0.75 0.85994,0.23046 0.78872,0.81358 1.96875,1.0625 0.60881,0.12855 0.5793,-0.0786 1.1875,0.15625 0.36853,0.1423 0.49646,0.35787 0.90625,0.5625 0.55862,0.27897 2.99636,0.84951 4.34375,1.4375 l 2.125,0.875 c 1.74822,0.67325 3.09972,0.49645 4.8125,1.0625 l 4.28125,1.59375 c 1.61737,0.23501 2.91124,0.90157 4.5625,1.1875 1.21171,0.20985 1.17225,-0.0939 2.15625,0.28125 1.0198,0.38891 13.05467,1.8092 13.0625,1.8125 l 0.5625,0.5 c 3.78348,-0.99957 1.55154,-0.0125 4.5,-0.78125 0.53787,-1.6753 0.35932,-2.54269 -0.84375,-3.40625 -2.12415,-1.5244 -1.32419,-2.25598 -4.34375,-3.8125 -0.31376,-0.16183 -0.47517,-0.37472 -0.78125,-0.59375 -2.19237,-1.56853 -1.34798,-0.87689 -2.96875,-3.09375 l -1.5625,-2.0625 c -1.60928,-1.39499 -0.51905,-0.65619 -2.625,-2.09375 -0.68269,-0.46616 -0.62959,-0.73857 -1.0625,-1.25 -1.97173,-2.33063 -1.12436,-1.82089 -2.03125,-2.90625 -0.56978,-0.68174 -0.59389,-0.76255 -1.1875,-1.25 -0.065,-2.14141 -1.70193,-2.73337 -1.96875,-3.75 -0.74101,-2.82298 0.70595,-2.66353 1.21875,-4.21875 -2.56577,-0.85774 -2.98369,-0.54499 -4.78125,-0.9375 l -7.125,-2.59375 z"
         style="fill:#ffffff;fill-opacity:1;stroke:#000000;stroke-width:0.80634921999999998" />
      <path
         style="fill:#ffffff;fill-opacity:1;stroke:#000000;stroke-width:0.80634922"
         id="path3073-8"
         d="m -74.315116,951.07128 c 1.6127,3.2254 4.8381,8.06349 4.8381,12.09524 0,8.86984 -10.48254,16.93333 -18.54604,16.12698 -3.22539,-0.80635 -10.48254,-4.83809 -12.901584,0 -0.80635,1.6127 -0.80635,3.2254 0,4.03175 0,3.2254 4.031744,4.83809 7.257144,6.45079 8.86984,2.41905 18.54603,-0.80635 25.80317,-5.64444 5.64445,-3.2254 9.67619,-8.86984 11.28889,-15.32064 0,0 1.6127,-10.48254 1.6127,-10.48254 0.80635,-3.22539 4.03175,-4.03174 8.06349,-9.67619 4.8381,-6.45079 9.67619,-17.73968 16.12699,-22.57778 2.41905,-1.61269 4.83809,-2.41904 8.06349,-3.22539 -1.6127,-2.41905 -3.2254,-4.03175 -4.8381,-6.4508 -1.61269,-0.80635 -3.22539,-2.41904 -4.83809,-2.41904 -2.41905,-0.80635 -5.64445,-0.80635 -8.06349,0.80635 -11.28889,5.64444 -8.86984,16.12698 -15.32064,24.19047 -4.83809,6.4508 -10.48254,9.67619 -18.54603,12.09524 z"
         inkscape:connector-curvature="0" />
      <path
         style="fill:#ffffff;fill-opacity:1;stroke:#000000;stroke-width:0.80634922"
         id="path3075-7"
         d="m -48.511936,961.55382 c 5.64444,2.41905 10.48253,1.6127 16.12698,1.6127 0,0 12.09524,0.80635 12.09524,0.80635 5.64444,0 7.25714,-3.2254 9.67619,-8.06349 0.8063498,-1.6127 1.6126998,-4.8381 0,-6.4508 -1.6127,-1.6127 -4.8381,-1.6127 -7.25714,-1.6127 0,0 -13.70794,0.80635 -13.70794,0.80635 -2.41905,0 -6.4508,0 -8.86984,0.80635 -4.03175,2.41905 -7.25715,8.06349 -8.06349,12.09524 z"
         inkscape:connector-curvature="0" />
      <path
         style="fill:#ffffff;fill-opacity:1;stroke:#000000;stroke-width:0.80634922"
         id="path3077-4"
         d="m -4.9690862,972.84271 c -4.03174,-1.6127 -6.4507898,-3.2254 -8.8698398,-6.45079 -0.80635,0.80634 -1.6127,0.80634 -2.41905,1.61269 -0.80635,4.03175 9.6761898,13.70794 11.2888898,4.8381 z"
         inkscape:connector-curvature="0" />
      <path
         style="fill:#ffffff;fill-opacity:1;stroke:#000000;stroke-width:0.80634922"
         id="path3079-5"
         d="m -10.613526,945.42684 c 0,0 6.4507898,4.03174 6.4507898,4.03174 -1.6127,3.2254 -5.64444,9.67619 -4.83809,13.70794 0.80635,8.06349 12.09523,8.06349 16.93333,3.2254 5.6444402,-6.4508 5.6444402,-16.12699 -2.41905,-20.96508 -4.83809002,-2.41905 -10.48254,-1.6127 -16.1269798,0 z"
         inkscape:connector-curvature="0" />
      <path
         style="fill:#ffffff;fill-opacity:1;stroke:#000000;stroke-width:0.80634922"
         id="path3081-6"
         d="m -300.0929,968.00461 c 0,0 0.80635,0.80635 0.80635,0.80635 6.45079,-1.6127 10.48254,-4.03174 11.28889,-10.48254 -4.8381,0.80635 -9.67619,5.64445 -12.09524,9.67619 z"
         inkscape:connector-curvature="0" />
      <path
         style="fill:#ffffff;fill-opacity:1;stroke:#000000;stroke-width:0.80634922"
         id="path3083-2"
         d="m -294.44845,938.16969 c -2.41905,-1.6127 -4.8381,-2.41904 -8.0635,-2.41904 -2.41904,0 -4.83809,0 -7.25714,0.80634 -8.06349,3.2254 -8.86984,16.12699 -2.41905,21.77143 3.2254,3.2254 11.28889,4.8381 14.51429,0.80635 3.2254,-3.22539 2.41905,-7.25714 0.80635,-11.28889 -0.80635,-2.41904 -2.41905,-5.64444 -0.80635,-7.25714 0.80635,-1.6127 2.41905,-1.6127 3.2254,-2.41905 z"
         inkscape:connector-curvature="0" />
      <path
         style="fill:#ffffff;fill-opacity:1;stroke:#000000;stroke-width:0.80634922"
         id="path3085-4"
         d="m -295.2548,941.39509 c 0.80635,2.41905 4.83809,12.09524 6.45079,13.70794 2.41905,1.61269 4.8381,1.61269 7.25714,1.61269 0,0 14.51429,-0.80634 14.51429,-0.80634 0,0 10.48254,0 10.48254,0 0,-2.41905 0,-4.8381 -0.80635,-6.4508 -2.41905,-6.45079 -11.28889,-9.67619 -17.73968,-9.67619 0,0 -7.25715,0.80635 -7.25715,0.80635 -4.83809,0 -8.86984,-0.80635 -12.90158,0.80635 z"
         inkscape:connector-curvature="0" />
      <path
         style="fill:#ffffff;fill-opacity:1;stroke:#000000;stroke-width:0.80634922"
         id="path3087-0"
         d="m -279.93417,915.59191 c 15.32064,4.03175 15.32064,16.93334 21.77143,25.80318 2.41905,3.2254 8.86984,8.06349 9.67619,11.28889 0.80635,2.41905 0,3.2254 0.80635,8.86984 1.6127,7.25714 6.45079,14.51429 12.90159,18.54603 7.25714,4.8381 13.70793,8.06349 22.57778,5.64445 4.83809,-1.6127 9.67619,-4.8381 7.25714,-10.48254 -2.41905,-5.64445 -11.28889,0 -16.93334,-1.6127 -5.64444,-2.41905 -12.09523,-10.48254 -12.09523,-16.93334 0,0 3.22539,-11.28888 3.22539,-11.28888 -8.86984,-3.2254 -19.35238,-10.48254 -23.38412,-19.35239 -2.41905,-5.64444 -2.41905,-13.70793 -6.4508,-17.73968 -7.25714,-5.64444 -16.93333,-0.80635 -19.35238,7.25714 z"
         inkscape:connector-curvature="0" />
      <path
         style="fill:#ffffff;fill-opacity:1;stroke:#000000;stroke-width:0.80634922"
         id="path3089-0"
         d="m -241.22941,934.13795 c 2.41905,3.22539 4.03175,4.03174 7.25715,5.64444 11.28889,6.45079 18.54603,1.6127 29.83492,-0.80635 0,0 23.38412,-7.25714 23.38412,-7.25714 -3.09638,-2.08038 -10.01485,-6.41048 -12.90158,-8.06349 0,0 -15.32064,4.03174 -15.32064,4.03174 0,0 -32.25397,6.4508 -32.25397,6.4508 z"
         inkscape:connector-curvature="0" />
      <path
         style="fill:#ffffff;fill-opacity:1;stroke:#000000;stroke-width:0.80634922"
         id="path3091-3"
         d="m -229.94052,957.52207 c 20.96508,0 40.31746,-6.45079 60.47619,-11.28889 0,0 8.86984,-4.19785 11.83398,-4.19785 -2.79803,-2.03926 -14.20948,-6.15889 -15.99474,-7.76837 -2.41905,0.71765 -11.96622,3.90273 -15.19162,4.70908 0,0 -20.15873,5.64445 -20.15873,5.64445 0,0 -9.67619,2.41904 -9.67619,2.41904 -5.64444,2.41905 -9.67619,3.2254 -11.28889,10.48254 z"
         inkscape:connector-curvature="0" />
    </g>
  </g>
</svg>
